\relax 
\providecommand\HyperFirstAtBeginDocument{\AtBeginDocument}
\HyperFirstAtBeginDocument{\ifx\hyper@anchor\@undefined
\global\let\oldcontentsline\contentsline
\gdef\contentsline#1#2#3#4{\oldcontentsline{#1}{#2}{#3}}
\global\let\oldnewlabel\newlabel
\gdef\newlabel#1#2{\newlabelxx{#1}#2}
\gdef\newlabelxx#1#2#3#4#5#6{\oldnewlabel{#1}{{#2}{#3}}}
\AtEndDocument{\ifx\hyper@anchor\@undefined
\let\contentsline\oldcontentsline
\let\newlabel\oldnewlabel
\fi}
\fi}
\global\let\hyper@last\relax 
\gdef\HyperFirstAtBeginDocument#1{#1}
\providecommand\HyField@AuxAddToFields[1]{}
\@writefile{toc}{\contentsline {chapter}{\numberline {1}Namespace Index}{1}{chapter.1}}
\@writefile{lof}{\addvspace {10\p@ }}
\@writefile{lot}{\addvspace {10\p@ }}
\@writefile{toc}{\contentsline {section}{\numberline {1.1}Namespace List}{1}{section.1.1}}
\@writefile{toc}{\contentsline {chapter}{\numberline {2}Class Index}{3}{chapter.2}}
\@writefile{lof}{\addvspace {10\p@ }}
\@writefile{lot}{\addvspace {10\p@ }}
\@writefile{toc}{\contentsline {section}{\numberline {2.1}Class List}{3}{section.2.1}}
\@writefile{toc}{\contentsline {chapter}{\numberline {3}Namespace Documentation}{5}{chapter.3}}
\@writefile{lof}{\addvspace {10\p@ }}
\@writefile{lot}{\addvspace {10\p@ }}
\@writefile{toc}{\contentsline {section}{\numberline {3.1}region\discretionary {-}{}{}\_\discretionary {-}{}{}detection Namespace Reference}{5}{section.3.1}}
\newlabel{namespaceregion__detection}{{3.1}{5}{region\-\_\-detection Namespace Reference\relax }{section.3.1}{}}
\@writefile{toc}{\contentsline {subsection}{\numberline {3.1.1}Detailed Description}{5}{subsection.3.1.1}}
\@writefile{toc}{\contentsline {section}{\numberline {3.2}ssdcolour Namespace Reference}{5}{section.3.2}}
\newlabel{namespacessdcolour}{{3.2}{5}{ssdcolour Namespace Reference\relax }{section.3.2}{}}
\@writefile{toc}{\contentsline {subsection}{\numberline {3.2.1}Detailed Description}{5}{subsection.3.2.1}}
\@writefile{toc}{\contentsline {chapter}{\numberline {4}Class Documentation}{7}{chapter.4}}
\@writefile{lof}{\addvspace {10\p@ }}
\@writefile{lot}{\addvspace {10\p@ }}
\@writefile{toc}{\contentsline {section}{\numberline {4.1}ssdmodules.\discretionary {-}{}{}colour.\discretionary {-}{}{}Background Class Reference}{7}{section.4.1}}
\newlabel{classssdmodules_1_1colour_1_1Background}{{4.1}{7}{ssdmodules.\-colour.\-Background Class Reference\relax }{section.4.1}{}}
\newlabel{classssdmodules_1_1colour_1_1Background_a63b82401ff25418bd486d35983d09518}{{4.1}{7}{Public Member Functions\relax }{section*.2}{}}
\newlabel{classssdmodules_1_1colour_1_1Background_af30d3440965687a8b0f72c80510b1ece}{{4.1}{7}{Public Member Functions\relax }{section*.2}{}}
\newlabel{classssdmodules_1_1colour_1_1Background_abcd78a6765f13b7d3a5a6ad3bf8402c6}{{4.1}{7}{Public Member Functions\relax }{section*.2}{}}
\newlabel{classssdmodules_1_1colour_1_1Background_aad986db170fd8167e65756d5b6bc0410}{{4.1}{7}{Public Member Functions\relax }{section*.2}{}}
\newlabel{classssdmodules_1_1colour_1_1Background_ab4c7926bd0feba4a12ef2c8dc14ce1e9}{{4.1}{7}{Public Member Functions\relax }{section*.2}{}}
\newlabel{classssdmodules_1_1colour_1_1Background_ae7b247f01a76b6cc729d6dba7f2b489d}{{4.1}{7}{Public Attributes\relax }{section*.3}{}}
\newlabel{classssdmodules_1_1colour_1_1Background_a3b728c2aacac5c23b586248f55ebbd0e}{{4.1}{7}{Public Attributes\relax }{section*.3}{}}
\newlabel{classssdmodules_1_1colour_1_1Background_a46e9a0489de6feb07d1f32f57e0cc5c7}{{4.1}{7}{Public Attributes\relax }{section*.3}{}}
\newlabel{classssdmodules_1_1colour_1_1Background_a9a89d8f7d53fd0637b75a485cb0bb01b}{{4.1}{7}{Public Attributes\relax }{section*.3}{}}
\newlabel{classssdmodules_1_1colour_1_1Background_ab7e2a4b18d4ed0ba58eaaba8cafad17b}{{4.1}{7}{Public Attributes\relax }{section*.3}{}}
\newlabel{classssdmodules_1_1colour_1_1Background_a487221e07c226cae731ae3b60177ab6e}{{4.1}{7}{Public Attributes\relax }{section*.3}{}}
\@writefile{toc}{\contentsline {subsection}{\numberline {4.1.1}Detailed Description}{7}{subsection.4.1.1}}
\@writefile{toc}{\contentsline {section}{\numberline {4.2}ssdmodules.\discretionary {-}{}{}region\discretionary {-}{}{}\_\discretionary {-}{}{}detection.\discretionary {-}{}{}Region\discretionary {-}{}{}Detector Class Reference}{8}{section.4.2}}
\newlabel{classssdmodules_1_1region__detection_1_1RegionDetector}{{4.2}{8}{ssdmodules.\-region\-\_\-detection.\-Region\-Detector Class Reference\relax }{section.4.2}{}}
\newlabel{classssdmodules_1_1region__detection_1_1RegionDetector_a2e184dfecb16fbd8ca817ebf6dddedf5}{{4.2}{8}{Public Member Functions\relax }{section*.4}{}}
\newlabel{classssdmodules_1_1region__detection_1_1RegionDetector_a84cfec0e03d378a8b9884526344a42b2}{{4.2}{8}{Public Member Functions\relax }{section*.4}{}}
\newlabel{classssdmodules_1_1region__detection_1_1RegionDetector_aeedefed357ca617cd6c62306df021271}{{4.2}{8}{Public Member Functions\relax }{section*.4}{}}
\newlabel{classssdmodules_1_1region__detection_1_1RegionDetector_a305e96f5c20051ff70a03b31a04d03f7}{{4.2}{8}{Public Attributes\relax }{section*.5}{}}
\newlabel{classssdmodules_1_1region__detection_1_1RegionDetector_a67340d9da10f2808ea3c5fd897401fb9}{{4.2}{8}{Public Attributes\relax }{section*.5}{}}
\newlabel{classssdmodules_1_1region__detection_1_1RegionDetector_acd9d43b1ea40897d87b644ce7926f1ac}{{4.2}{8}{Public Attributes\relax }{section*.5}{}}
\newlabel{classssdmodules_1_1region__detection_1_1RegionDetector_ace64b342c039c1d08660c500ab57c4a8}{{4.2}{8}{Public Attributes\relax }{section*.5}{}}
\newlabel{classssdmodules_1_1region__detection_1_1RegionDetector_a1dd926a07b8b18f874b6c7379e661d71}{{4.2}{8}{Public Attributes\relax }{section*.5}{}}
\newlabel{classssdmodules_1_1region__detection_1_1RegionDetector_a9c6cc1af27ecee151f03e5e9c8968514}{{4.2}{8}{Public Attributes\relax }{section*.5}{}}
\newlabel{classssdmodules_1_1region__detection_1_1RegionDetector_a8f27568cfd121aaa8c31ccffa83b5f10}{{4.2}{8}{Public Attributes\relax }{section*.5}{}}
\@writefile{toc}{\contentsline {part}{Index}{8}{section*.5}}
